<?xml version="1.0" encoding="UTF-8"?>
<svg width="16px" height="19px" viewBox="0 0 16 19" version="1.1" xmlns="http://www.w3.org/2000/svg" xmlns:xlink="http://www.w3.org/1999/xlink">
    <!-- Generator: sketchtool 51.3 (57544) - http://www.bohemiancoding.com/sketch -->
    <title>34E81F03-A4C8-4197-8790-B3E440F292A8</title>
    <desc>Created with sketchtool.</desc>
    <defs></defs>
    <g id="Layout" stroke="none" stroke-width="1" fill="none" fill-rule="evenodd">
        <g id="Datenschutzerklärung" transform="translate(-878.000000, -28.000000)" fill="#3068B4" fill-rule="nonzero">
            <g id="HEADER">
                <path d="M883.126803,26.2097015 C883.368391,25.972285 883.74273,25.9333683 884.028328,26.1087849 L886.776487,27.7968253 C887.075554,27.9805031 887.197856,28.348286 887.066876,28.6700747 L885.692818,32.0459472 C885.572228,32.3422032 885.266748,32.5243244 884.943674,32.4925718 L882.5774,32.260072 C881.684864,34.6876119 881.703477,37.3630266 882.5774,39.7398582 L884.943717,39.5073167 C885.266791,39.4755641 885.572271,39.6576853 885.69286,39.9539413 L887.066919,43.3298555 C887.19788,43.6516448 887.075582,44.0194161 886.77653,44.2031049 L884.02837,45.8911453 C883.740588,46.0678714 883.366772,46.0260285 883.126803,45.7902287 C877.620308,40.378816 877.628491,31.6130725 883.126803,26.2097015 Z M888.196714,36.7274999 C888.029239,37.0063747 887.640951,37.0591246 887.403094,36.8350415 L887.149762,36.5964583 C886.98394,36.4402918 886.946544,36.1955419 887.053898,35.9960421 C887.263663,35.6056834 887.263663,35.1386934 887.053898,34.7483347 C886.946502,34.5488348 886.98394,34.304085 887.149762,34.1479185 L887.403094,33.9093353 C887.640951,33.6852521 888.029239,33.7380021 888.196714,34.0168769 C888.698376,34.8521679 888.698376,35.8922088 888.196714,36.7274999 Z M892.088368,30.2174213 C894.638228,33.2009191 894.636193,37.5458326 892.088368,40.5269138 C891.898676,40.7488719 891.557111,40.7663302 891.344185,40.5657887 L891.098357,40.3342472 C890.905019,40.1521224 890.887338,39.8538726 891.058926,39.6517894 C893.165593,37.1710412 893.163854,33.5712522 891.058926,31.0925457 C890.887338,30.8904625 890.904976,30.5922127 891.098357,30.4100879 L891.344185,30.1785464 C891.557111,29.9780049 891.898676,29.9954632 892.088368,30.2174213 Z M890.139212,32.0899616 C891.667687,34.0200435 891.670146,36.7211666 890.139212,38.6543735 C889.953082,38.889415 889.600876,38.9148316 889.38214,38.7087068 L889.135465,38.4762486 C888.94891,38.3004571 888.923556,38.0139573 889.080982,37.8124574 C890.206075,36.3722918 890.20599,34.37196 889.080982,32.9318777 C888.923556,32.7303778 888.94891,32.4439197 889.135465,32.2680865 L889.38214,32.0356283 C889.600876,31.8295035 889.953082,31.8549201 890.139212,32.0899616 Z" id="ic-phone-header" transform="translate(886.500000, 36.000000) rotate(-33.000000) translate(-886.500000, -36.000000) "></path>
            </g>
        </g>
    </g>
</svg>