<?xml version="1.0" encoding="UTF-8"?>
<svg width="11px" height="11px" viewBox="0 0 11 11" version="1.1" xmlns="http://www.w3.org/2000/svg" xmlns:xlink="http://www.w3.org/1999/xlink">
    <!-- Generator: sketchtool 51.3 (57544) - http://www.bohemiancoding.com/sketch -->
    <title>699C0439-7B5A-44AD-A53D-CE2E2EEAEAFC</title>
    <desc>Created with sketchtool.</desc>
    <defs></defs>
    <g id="Layout" stroke="none" stroke-width="1" fill="none" fill-rule="evenodd" opacity="0.699999988">
        <g id="Editionen-&gt;-Standard" transform="translate(-358.000000, -900.000000)">
            <g id="side-navigation" transform="translate(115.000000, 635.000000)">
                <g id="Rectangle-21">
                    <g>
                        <g id="Group-4">
                            <g id="ic_minus" transform="translate(243.000000, 265.000000)">
                                <rect id="Background" x="0" y="0" width="11" height="11"></rect>
                                <path d="M11,6.43794643 L11,4.56205357 C11,4.23549107 10.7372768,3.97276786 10.4107143,3.97276786 L7.02723214,3.97276786 L7.02723214,0.589285714 C7.02723214,0.262723214 6.76450893,0 6.43794643,0 L4.56205357,0 C4.23549107,0 3.97276786,0.262723214 3.97276786,0.589285714 L3.97276786,3.97276786 L0.589285714,3.97276786 C0.262723214,3.97276786 0,4.23549107 0,4.56205357 L0,6.43794643 C0,6.76450893 0.262723214,7.02723214 0.589285714,7.02723214 L3.97276786,7.02723214 L3.97276786,10.4107143 C3.97276786,10.7372768 4.23549107,11 4.56205357,11 L6.43794643,11 C6.76450893,11 7.02723214,10.7372768 7.02723214,10.4107143 L7.02723214,7.02723214 L10.4107143,7.02723214 C10.7372768,7.02723214 11,6.76450893 11,6.43794643 Z" id="ic_plus" fill="#4E5256" fill-rule="nonzero"></path>
                            </g>
                        </g>
                    </g>
                </g>
            </g>
        </g>
    </g>
</svg>