<?xml version="1.0" encoding="UTF-8"?>
<!DOCTYPE svg PUBLIC "-//W3C//DTD SVG 1.1//EN" "http://www.w3.org/Graphics/SVG/1.1/DTD/svg11.dtd">
<!-- Creator: CorelDRAW -->
<svg xmlns="http://www.w3.org/2000/svg" xml:space="preserve" width="1879px" height="833px" style="shape-rendering:geometricPrecision; text-rendering:geometricPrecision; image-rendering:optimizeQuality; fill-rule:evenodd; clip-rule:evenodd"
viewBox="0 0 1699.42 753.178"
 xmlns:xlink="http://www.w3.org/1999/xlink">
 <defs>
  <style type="text/css">
   <![CDATA[
    .fil0 {fill:#C3123B}
   ]]>
  </style>
 </defs>
 <g id="Layer_x0020_1">
  <metadata id="CorelCorpID_0Corel-Layer"/>
  <g id="_60686416">
   <polygon id="_59137944" class="fil0" points="1093.16,75.6732 1074.25,76.8548 1043.52,78.0375 1029.34,79.2202 1017.52,80.4029 996.252,81.5845 986.798,82.7672 976.161,83.9499 959.616,85.1315 950.162,86.3142 939.526,87.4969 926.527,88.6796 919.436,89.8612 906.436,91.0439 898.163,92.2266 892.254,93.4082 879.254,94.5909 873.346,95.7736 866.255,96.9552 855.618,98.1379 848.528,99.3206 842.62,100.503 831.983,101.685 827.255,102.868 821.347,104.05 811.892,105.232 805.984,106.415 801.256,107.597 791.802,108.78 785.893,109.962 777.621,111.144 771.711,112.327 766.984,113.509 758.711,114.691 753.985,115.874 749.257,117.057 740.985,118.238 737.439,119.421 732.712,120.604 724.44,121.785 719.712,122.968 716.167,124.151 707.894,125.333 704.349,126.515 699.622,127.698 692.532,128.88 688.986,130.062 684.258,131.245 677.167,132.428 673.623,133.61 672.441,134.792 672.441,139.522 673.623,143.069 674.804,146.616 675.986,148.981 679.532,148.981 684.258,147.798 690.167,146.616 694.895,145.434 698.44,144.251 705.531,143.069 710.258,141.886 713.803,140.704 722.076,139.522 726.803,138.339 730.349,137.157 738.622,135.975 743.348,134.792 748.076,133.61 756.348,132.428 761.076,131.245 769.348,130.062 774.075,128.88 778.802,127.698 787.075,126.515 792.984,125.333 797.711,124.151 807.165,122.968 813.074,121.785 817.801,120.604 828.438,119.421 833.164,118.238 839.074,117.057 850.892,115.874 855.618,114.691 862.709,113.509 873.346,112.327 880.436,111.144 892.254,109.962 899.345,108.78 906.436,107.597 919.436,106.415 927.708,105.232 935.981,104.05 950.162,102.868 959.616,101.685 967.889,100.503 985.617,99.3206 996.252,98.1379 1006.89,96.9552 1029.34,95.7736 1042.34,94.5909 1055.34,93.4082 1089.61,92.2266 1113.25,91.0439 1147.52,89.8612 1227.88,89.8612 1262.16,91.0439 1285.79,92.2266 1320.06,93.4082 1333.06,94.5909 1346.06,95.7736 1369.7,96.9552 1380.33,98.1379 1389.79,99.3206 1407.52,100.503 1416.97,101.685 1425.24,102.868 1439.42,104.05 1447.7,105.232 1455.97,106.415 1468.97,107.597 1476.06,108.78 1483.15,109.962 1496.15,111.144 1502.06,112.327 1513.88,113.509 1519.79,114.691 1525.7,115.874 1536.33,117.057 1542.24,118.238 1546.97,119.421 1557.6,120.604 1563.51,121.785 1568.24,122.968 1577.69,124.151 1582.42,125.333 1588.33,126.515 1596.6,127.698 1601.33,128.88 1607.24,130.062 1615.51,131.245 1620.24,132.428 1627.33,133.61 1633.24,134.792 1636.78,135.975 1645.06,137.157 1649.78,138.339 1653.33,139.522 1661.6,140.704 1665.15,141.886 1669.87,143.069 1676.97,144.251 1681.69,145.434 1685.24,146.616 1692.33,147.798 1695.87,147.798 1697.06,144.251 1698.24,140.704 1699.42,135.975 1699.42,133.61 1698.24,132.428 1691.15,131.245 1686.42,130.062 1682.87,128.88 1675.78,127.698 1671.06,126.515 1667.51,125.333 1659.24,124.151 1655.69,122.968 1650.97,121.785 1642.69,120.604 1637.97,119.421 1634.42,118.238 1626.15,117.057 1621.42,115.874 1616.69,114.691 1608.42,113.509 1603.69,112.327 1597.78,111.144 1589.51,109.962 1583.6,108.78 1574.15,107.597 1569.42,106.415 1563.51,105.232 1554.06,104.05 1548.15,102.868 1543.42,101.685 1532.79,100.503 1526.88,99.3206 1519.79,98.1379 1509.15,96.9552 1503.24,95.7736 1496.15,94.5909 1483.15,93.4082 1477.24,92.2266 1468.97,91.0439 1455.97,89.8612 1448.88,88.6796 1435.88,87.4969 1425.24,86.3142 1415.79,85.1315 1399.24,83.9499 1388.61,82.7672 1379.15,81.5845 1357.88,80.4029 1346.06,79.2202 1331.88,78.0375 1301.16,76.8548 1283.43,75.6732 1257.43,74.4905 1117.98,74.4905 "/>
   <polygon id="_59340816" class="fil0" points="341.539,74.4905 340.357,81.5845 339.175,88.6796 337.993,98.1379 336.811,102.868 335.63,107.597 334.448,114.691 333.266,118.238 332.085,121.785 330.902,127.698 329.72,130.062 328.539,133.61 327.357,138.339 326.176,140.704 324.993,144.251 323.811,148.981 322.63,151.345 321.448,153.711 320.266,157.258 319.085,159.622 317.903,163.169 316.72,165.534 315.539,167.899 314.357,172.628 313.176,176.175 311.994,178.54 310.812,184.452 309.631,189.182 308.448,195.093 308.448,228.2 309.631,234.112 310.812,237.659 311.994,244.753 313.176,248.3 314.357,250.666 315.539,255.395 316.72,257.76 317.903,260.124 319.085,263.671 320.266,266.037 321.448,268.401 322.63,270.766 323.811,271.948 324.993,274.313 326.176,276.678 327.357,277.86 328.539,280.225 329.72,281.407 330.902,282.59 332.085,284.954 333.266,286.137 334.448,287.319 335.63,289.684 336.811,290.867 339.175,290.867 339.175,293.231 340.357,294.414 341.539,295.595 342.72,296.778 343.902,297.961 345.084,299.142 346.265,300.325 347.447,301.508 348.63,302.691 349.811,303.872 350.993,305.055 353.356,306.238 354.539,307.419 355.72,308.602 358.084,309.785 359.265,310.967 361.629,312.149 362.811,313.332 363.993,314.514 366.356,315.696 368.719,316.879 369.901,318.061 373.447,319.244 374.629,320.426 376.993,321.608 380.538,322.791 382.901,323.973 385.265,325.155 389.992,326.338 392.355,327.521 395.901,328.702 401.81,329.885 406.537,331.068 412.446,332.249 447.9,332.249 453.809,331.068 457.354,329.885 464.445,328.702 467.991,327.521 470.354,326.338 473.899,325.155 477.445,323.973 478.627,322.791 482.173,321.608 484.536,320.426 485.717,319.244 489.262,318.061 491.627,316.879 492.808,315.696 495.172,314.514 496.353,313.332 498.717,312.149 501.081,310.967 502.262,309.785 503.444,308.602 504.627,307.419 505.808,306.238 508.172,305.055 509.353,303.872 510.535,302.691 511.716,301.508 512.899,300.325 514.081,299.142 515.262,297.961 516.444,296.778 517.626,295.595 518.807,294.414 519.989,293.231 521.172,292.048 522.353,290.867 523.535,289.684 523.535,287.319 525.898,287.319 527.081,284.954 528.262,283.772 529.444,281.407 530.626,280.225 531.807,279.042 532.989,275.495 534.17,274.313 535.353,273.131 536.535,270.766 537.716,268.401 538.898,267.218 540.08,263.671 541.261,261.307 542.443,258.942 543.626,255.395 544.807,253.03 545.989,249.483 547.17,243.571 548.352,241.206 549.535,236.477 550.716,227.017 551.898,215.194 551.898,206.917 550.716,195.093 549.535,185.635 548.352,180.905 547.17,177.358 545.989,172.628 544.807,170.264 543.626,167.899 542.443,163.169 541.261,160.805 540.08,158.439 538.898,154.892 537.716,152.528 536.535,150.163 535.353,145.434 534.17,143.069 532.989,140.704 531.807,135.975 530.626,132.428 529.444,130.062 528.262,124.151 527.081,120.604 525.898,114.691 524.716,109.962 523.535,106.415 522.353,98.1379 521.172,92.2266 519.989,87.4969 518.807,73.3078 517.626,61.484 516.444,59.1197 484.536,59.1197 484.536,63.8494 485.717,75.6732 486.899,89.8612 488.081,95.7736 489.262,101.685 490.445,111.144 491.627,114.691 492.808,119.421 493.99,125.333 495.172,128.88 496.353,132.428 497.535,138.339 498.717,141.886 499.899,144.251 501.081,150.163 502.262,152.528 503.444,154.892 504.627,159.622 505.808,161.987 506.99,165.534 508.172,169.081 509.353,170.264 510.535,174.993 511.716,176.175 512.899,179.722 514.081,184.452 515.262,186.816 516.444,190.365 517.626,199.823 518.807,210.465 518.807,211.647 517.626,223.47 516.444,231.747 515.262,235.294 514.081,238.841 512.899,243.571 511.716,245.936 510.535,247.118 509.353,250.666 508.172,253.03 506.99,254.213 505.808,256.577 504.627,258.942 503.444,261.307 502.262,262.49 501.081,263.671 499.899,266.037 498.717,267.218 497.535,268.401 496.353,269.584 495.172,270.766 493.99,271.948 493.99,274.313 491.627,274.313 490.445,275.495 489.262,276.678 488.081,277.86 486.899,279.042 485.717,280.225 484.536,281.407 483.354,282.59 480.99,283.772 479.808,284.954 477.445,286.137 475.082,287.319 473.899,288.501 471.536,289.684 469.173,290.867 466.808,292.048 463.263,293.231 460.9,294.414 457.354,295.595 452.628,296.778 449.082,297.961 444.354,299.142 414.809,299.142 410.083,297.961 406.537,296.778 400.629,295.595 399.446,294.414 395.901,293.231 392.355,292.048 389.992,290.867 388.81,289.684 386.447,288.501 384.083,287.319 381.719,286.137 380.538,284.954 379.356,283.772 376.993,282.59 375.81,281.407 373.447,280.225 372.265,279.042 371.084,277.86 369.901,276.678 368.719,275.495 366.356,275.495 366.356,273.131 365.175,271.948 363.993,270.766 362.811,269.584 361.629,268.401 360.447,267.218 359.265,264.854 358.084,263.671 356.902,261.307 355.72,260.124 354.539,258.942 353.356,256.577 352.175,254.213 350.993,253.03 349.811,249.483 348.63,247.118 347.447,245.936 346.265,241.206 345.084,238.841 343.902,234.112 342.72,229.383 341.539,224.653 341.539,198.64 342.72,193.912 343.902,189.182 345.084,184.452 346.265,182.088 347.447,177.358 348.63,174.993 349.811,172.628 350.993,169.081 352.175,166.716 353.356,164.352 354.539,159.622 355.72,157.258 356.902,154.892 358.084,150.163 359.265,147.798 360.447,144.251 361.629,139.522 362.811,135.975 363.993,132.428 365.175,126.515 366.356,122.968 367.538,117.057 368.719,111.144 369.901,107.597 371.084,96.9552 372.265,92.2266 373.447,85.1315 374.629,66.2138 374.629,59.1197 342.72,59.1197 "/>
   <polygon id="_25452160" class="fil0" points="412.446,152.528 408.901,153.711 405.355,154.892 401.81,156.075 399.446,157.258 397.083,158.439 394.719,159.622 393.538,160.805 391.174,161.987 389.992,163.169 388.81,164.352 386.447,165.534 385.265,166.716 384.083,167.899 382.901,169.081 381.719,170.264 380.538,171.446 379.356,172.628 378.175,173.811 376.993,174.993 375.81,176.175 374.629,178.54 373.447,179.722 372.265,180.905 371.084,183.269 369.901,184.452 368.719,186.816 367.538,189.182 366.356,191.546 365.175,196.276 363.993,198.64 362.811,202.188 361.629,211.647 361.629,227.017 362.811,236.477 363.993,240.024 365.175,242.389 366.356,247.118 367.538,248.3 368.719,251.848 369.901,254.213 371.084,255.395 372.265,257.76 373.447,258.942 374.629,261.307 375.81,262.49 376.993,263.671 378.175,264.854 379.356,266.037 380.538,267.218 381.719,268.401 382.901,270.766 386.447,270.766 386.447,273.131 387.629,274.313 389.992,275.495 391.174,276.678 393.538,277.86 395.901,279.042 397.083,280.225 399.446,281.407 402.992,282.59 405.355,283.772 407.719,284.954 413.628,286.137 418.355,287.319 440.809,287.319 445.537,286.137 451.445,284.954 454.991,283.772 457.354,282.59 460.9,281.407 462.082,280.225 464.445,279.042 466.808,277.86 467.991,276.678 469.173,275.495 471.536,274.313 472.717,273.131 473.899,271.948 475.082,270.766 476.263,269.584 477.445,268.401 478.627,267.218 479.808,266.037 480.99,264.854 482.173,263.671 483.354,262.49 484.536,261.307 485.717,258.942 486.899,257.76 488.081,256.577 489.262,254.213 490.445,251.848 491.627,250.666 492.808,247.118 493.99,243.571 495.172,241.206 496.353,236.477 497.535,231.747 498.717,223.47 498.717,215.194 497.535,206.917 496.353,202.188 495.172,196.276 493.99,193.912 492.808,192.729 491.627,187.999 490.445,186.816 489.262,185.635 488.081,182.088 486.899,180.905 485.717,179.722 484.536,177.358 483.354,176.175 482.173,174.993 480.99,172.628 478.627,172.628 478.627,170.264 477.445,169.081 475.082,167.899 473.899,166.716 472.717,165.534 471.536,164.352 470.354,163.169 467.991,161.987 465.627,160.805 464.445,159.622 462.082,158.439 459.718,157.258 457.354,156.075 454.991,154.892 450.263,153.711 447.9,152.528 437.264,151.345 421.9,151.345 "/>
   <polygon id="_60680464" class="fil0" points="296.631,62.6667 295.449,72.1262 294.266,85.1315 293.085,89.8612 291.903,94.5909 290.721,101.685 289.54,105.232 288.358,108.78 287.177,114.691 285.994,118.238 284.812,120.604 283.631,125.333 282.449,128.88 281.267,131.245 280.086,135.975 278.903,138.339 277.721,140.704 276.54,144.251 275.358,146.616 274.177,150.163 272.995,152.528 271.812,154.892 270.631,159.622 269.449,163.169 268.267,165.534 267.086,172.628 265.904,176.175 264.723,180.905 263.54,192.729 262.358,210.465 262.358,212.829 263.54,229.383 264.723,241.206 265.904,245.936 267.086,249.483 268.267,256.577 269.449,260.124 270.631,262.49 271.812,267.218 272.995,270.766 274.177,273.131 275.358,276.678 276.54,279.042 277.721,282.59 278.903,284.954 280.086,286.137 281.267,289.684 282.449,290.867 283.631,293.231 284.812,295.595 285.994,297.961 288.358,297.961 288.358,301.508 289.54,302.691 290.721,303.872 291.903,306.238 293.085,307.419 294.266,308.602 295.449,310.967 296.631,312.149 297.812,314.514 298.994,315.696 300.176,316.879 301.357,319.244 302.539,320.426 303.721,321.608 304.903,322.791 306.085,323.973 307.266,325.155 308.448,326.338 309.631,327.521 310.812,328.702 311.994,331.068 314.357,332.249 315.539,333.432 316.72,334.615 319.085,334.615 319.085,336.979 320.266,338.162 322.63,338.162 322.63,340.526 324.993,341.709 326.176,342.891 328.539,342.891 328.539,345.256 330.902,346.438 332.085,347.621 334.448,348.803 335.63,349.985 337.993,351.168 339.175,352.35 341.539,353.532 342.72,354.715 346.265,355.898 347.447,357.079 348.63,358.262 352.175,359.445 354.539,360.626 355.72,361.809 359.265,362.992 361.629,364.175 363.993,365.356 367.538,366.539 369.901,367.722 373.447,368.903 376.993,370.086 380.538,371.269 384.083,372.451 389.992,373.633 393.538,374.816 399.446,375.998 410.083,377.18 419.537,378.363 439.628,378.363 450.263,377.18 459.718,375.998 465.627,374.816 469.173,373.633 475.082,372.451 478.627,371.269 482.173,370.086 486.899,368.903 489.262,367.722 491.627,366.539 495.172,365.356 497.535,364.175 499.899,362.992 503.444,361.809 504.627,360.626 506.99,359.445 510.535,358.262 511.716,357.079 512.899,355.898 516.444,354.715 517.626,353.532 519.989,352.35 522.353,351.168 523.535,349.985 524.716,348.803 527.081,347.621 528.262,346.438 530.626,345.256 531.807,344.073 532.989,342.891 535.353,341.709 535.353,339.344 537.716,339.344 538.898,338.162 540.08,336.979 541.261,335.796 542.443,334.615 543.626,333.432 544.807,332.249 545.989,331.068 547.17,329.885 548.352,328.702 549.535,327.521 550.716,326.338 551.898,325.155 553.08,323.973 554.261,322.791 555.443,321.608 556.625,320.426 557.807,319.244 558.989,318.061 560.171,315.696 561.352,314.514 562.534,313.332 563.715,310.967 564.897,309.785 566.08,308.602 567.261,306.238 568.443,305.055 569.625,303.872 570.806,301.508 571.989,299.142 573.171,297.961 574.352,295.595 575.534,294.414 576.715,290.867 577.897,288.501 579.079,287.319 580.261,283.772 581.443,281.407 582.625,280.225 583.806,276.678 584.988,274.313 586.169,271.948 587.351,267.218 588.534,263.671 589.715,261.307 590.897,255.395 592.079,253.03 593.26,248.3 594.442,240.024 595.625,234.112 596.806,224.653 596.806,197.459 595.625,186.816 594.442,180.905 593.26,173.811 592.079,169.081 590.897,165.534 589.715,159.622 588.534,157.258 587.351,154.892 586.169,150.163 584.988,147.798 583.806,145.434 582.625,141.886 581.443,139.522 580.261,137.157 579.079,132.428 577.897,130.062 576.715,128.88 575.534,122.968 574.352,120.604 573.171,115.874 571.989,112.327 570.806,108.78 569.625,101.685 568.443,96.9552 567.261,93.4082 566.08,83.9499 564.897,78.0375 563.715,70.9435 562.534,29.5599 530.626,29.5599 530.626,72.1262 531.807,80.4029 532.989,87.4969 534.17,96.9552 535.353,101.685 536.535,106.415 537.716,113.509 538.898,117.057 540.08,119.421 541.261,125.333 542.443,128.88 543.626,132.428 544.807,137.157 545.989,139.522 547.17,141.886 548.352,146.616 549.535,148.981 550.716,152.528 551.898,154.892 553.08,157.258 554.261,160.805 555.443,164.352 556.625,166.716 557.807,171.446 558.989,174.993 560.171,178.54 561.352,186.816 562.534,193.912 563.715,203.37 563.715,218.741 562.534,227.017 561.352,234.112 560.171,242.389 558.989,245.936 557.807,248.3 556.625,254.213 555.443,256.577 554.261,258.942 553.08,263.671 551.898,264.854 550.716,268.401 549.535,270.766 548.352,273.131 547.17,275.495 545.989,276.678 544.807,279.042 543.626,281.407 542.443,283.772 541.261,284.954 540.08,287.319 538.898,288.501 537.716,289.684 536.535,292.048 535.353,293.231 534.17,294.414 534.17,296.778 531.807,296.778 530.626,299.142 529.444,300.325 528.262,301.508 528.262,303.872 525.898,303.872 524.716,305.055 524.716,307.419 522.353,307.419 521.172,308.602 519.989,309.785 518.807,310.967 517.626,312.149 515.262,313.332 514.081,314.514 512.899,315.696 511.716,316.879 510.535,318.061 508.172,319.244 506.99,320.426 504.627,321.608 503.444,322.791 501.081,323.973 499.899,325.155 497.535,326.338 495.172,327.521 493.99,328.702 491.627,329.885 488.081,331.068 486.899,332.249 483.354,333.432 480.99,334.615 478.627,335.796 473.899,336.979 471.536,338.162 469.173,339.344 463.263,340.526 458.536,341.709 453.809,342.891 443.173,344.073 415.992,344.073 405.355,342.891 400.629,341.709 397.083,340.526 389.992,339.344 387.629,338.162 385.265,336.979 380.538,335.796 378.175,334.615 375.81,333.432 373.447,332.249 371.084,331.068 367.538,329.885 366.356,328.702 363.993,327.521 361.629,326.338 360.447,325.155 358.084,323.973 355.72,322.791 354.539,321.608 353.356,320.426 350.993,319.244 349.811,318.061 348.63,316.879 346.265,315.696 345.084,314.514 343.902,313.332 342.72,312.149 340.357,310.967 339.175,309.785 337.993,308.602 336.811,307.419 335.63,306.238 334.448,305.055 333.266,303.872 332.085,302.691 330.902,301.508 329.72,300.325 328.539,297.961 327.357,296.778 326.176,295.595 324.993,294.414 323.811,293.231 322.63,290.867 321.448,289.684 320.266,287.319 319.085,286.137 317.903,284.954 316.72,282.59 315.539,280.225 314.357,279.042 313.176,276.678 311.994,274.313 310.812,273.131 309.631,269.584 308.448,267.218 307.266,266.037 306.085,261.307 304.903,258.942 303.721,256.577 302.539,251.848 301.357,249.483 300.176,245.936 298.994,238.841 297.812,234.112 296.631,221.106 296.631,199.823 297.812,186.816 298.994,182.088 300.176,174.993 301.357,172.628 302.539,169.081 303.721,164.352 304.903,161.987 306.085,159.622 307.266,156.075 308.448,153.711 309.631,151.345 310.812,146.616 311.994,145.434 313.176,141.886 314.357,137.157 315.539,134.792 316.72,132.428 317.903,126.515 319.085,124.151 320.266,119.421 321.448,113.509 322.63,109.962 323.811,102.868 324.993,98.1379 326.176,93.4082 327.357,81.5845 328.539,74.4905 329.72,63.8494 329.72,29.5599 297.812,29.5599 "/>
   <polygon id="_60682192" class="fil0" points="248.177,2.36539 249.358,7.09509 250.541,13.0064 251.723,29.5599 251.723,56.7543 250.541,73.3078 249.358,79.2202 248.177,83.9499 246.995,91.0439 245.813,94.5909 244.632,98.1379 243.45,104.05 242.268,107.597 241.086,109.962 239.904,114.691 238.722,117.057 237.541,119.421 236.359,124.151 235.178,125.333 233.996,128.88 232.813,132.428 231.632,134.792 230.45,137.157 229.268,141.886 228.087,144.251 226.904,148.981 225.722,152.528 224.541,154.892 223.359,161.987 222.178,165.534 220.996,169.081 219.814,178.54 218.632,184.452 217.45,192.729 217.45,229.383 218.632,238.841 219.814,244.753 220.996,254.213 222.178,258.942 223.359,262.49 224.541,268.401 225.722,271.948 226.904,274.313 228.087,280.225 229.268,282.59 230.45,287.319 231.632,289.684 232.813,292.048 233.996,295.595 235.178,297.961 236.359,300.325 237.541,303.872 238.722,305.055 239.904,307.419 241.086,310.967 242.268,312.149 243.45,314.514 244.632,316.879 245.813,318.061 246.995,320.426 248.177,322.791 249.358,323.973 250.541,325.155 251.723,328.702 252.904,329.885 254.086,331.068 255.267,333.432 256.45,334.615 257.632,336.979 258.813,338.162 259.995,339.344 261.177,341.709 262.358,342.891 263.54,344.073 264.723,346.438 265.904,347.621 267.086,348.803 268.267,349.985 269.449,351.168 270.631,352.35 271.812,354.715 274.177,355.898 275.358,358.262 277.721,358.262 277.721,360.626 278.903,361.809 281.267,361.809 281.267,364.175 282.449,365.356 284.812,365.356 284.812,367.722 285.994,368.903 288.358,370.086 289.54,371.269 290.721,372.451 291.903,373.633 293.085,374.816 295.449,375.998 296.631,377.18 297.812,378.363 300.176,379.545 301.357,380.727 302.539,381.91 304.903,383.092 306.085,384.275 307.266,385.457 309.631,386.639 310.812,387.822 311.994,389.004 315.539,390.186 316.72,391.369 317.903,392.552 320.266,393.733 322.63,394.916 323.811,396.099 326.176,397.28 328.539,398.463 332.085,399.646 333.266,400.828 335.63,402.01 339.175,403.193 340.357,404.375 342.72,405.557 346.265,406.74 348.63,407.922 350.993,409.105 355.72,410.287 358.084,411.469 360.447,412.652 365.175,413.834 368.719,415.016 372.265,416.199 378.175,417.382 381.719,418.564 386.447,419.746 394.719,420.929 400.629,422.111 420.718,423.293 438.446,423.293 458.536,422.111 464.445,420.929 473.899,419.746 477.445,418.564 480.99,417.382 488.081,416.199 491.627,415.016 493.99,413.834 498.717,412.652 502.262,411.469 504.627,410.287 508.172,409.105 510.535,407.922 512.899,406.74 516.444,405.557 518.807,404.375 521.172,403.193 524.716,402.01 525.898,400.828 528.262,399.646 531.807,398.463 532.989,397.28 535.353,396.099 537.716,394.916 538.898,393.733 541.261,392.552 542.443,391.369 544.807,390.186 547.17,389.004 548.352,387.822 549.535,386.639 551.898,385.457 553.08,384.275 555.443,383.092 556.625,381.91 558.989,380.727 558.989,378.363 561.352,378.363 562.534,377.18 564.897,375.998 566.08,374.816 567.261,373.633 568.443,372.451 569.625,371.269 570.806,370.086 573.171,368.903 574.352,367.722 575.534,366.539 576.715,365.356 577.897,364.175 579.079,362.992 580.261,361.809 581.443,360.626 582.625,359.445 583.806,358.262 584.988,357.079 586.169,355.898 587.351,354.715 588.534,352.35 589.715,351.168 590.897,349.985 592.079,348.803 593.26,347.621 593.26,345.256 595.625,345.256 596.806,342.891 597.988,341.709 599.169,340.526 600.351,338.162 601.533,336.979 602.715,334.615 603.897,333.432 603.897,331.068 606.26,331.068 607.442,328.702 608.624,326.338 609.805,325.155 610.988,322.791 612.169,321.608 613.351,319.244 614.533,316.879 615.714,314.514 616.896,313.332 618.078,310.967 619.26,308.602 620.442,306.238 621.624,303.872 622.805,301.508 623.987,297.961 625.17,295.595 626.351,293.231 627.533,288.501 628.714,287.319 629.896,283.772 631.078,280.225 632.259,276.678 633.442,274.313 634.624,268.401 635.805,264.854 636.987,261.307 638.168,254.213 639.35,248.3 640.532,242.389 641.714,228.2 641.714,193.912 640.532,179.722 639.35,173.811 638.168,169.081 636.987,161.987 635.805,158.439 634.624,154.892 633.442,148.981 632.259,145.434 631.078,143.069 629.896,138.339 628.714,135.975 627.533,133.61 626.351,130.062 625.17,127.698 623.987,125.333 622.805,121.785 621.624,119.421 620.442,115.874 619.26,112.327 618.078,108.78 616.896,104.05 615.714,101.685 614.533,98.1379 613.351,91.0439 612.169,87.4969 610.988,82.7672 609.805,72.1262 608.624,65.0311 607.442,54.39 607.442,31.9242 608.624,21.2831 609.805,14.1891 610.988,3.54808 610.988,0 577.897,0 576.715,7.09509 575.534,14.1891 574.352,23.6485 574.352,62.6667 575.534,73.3078 576.715,79.2202 577.897,88.6796 579.079,94.5909 580.261,98.1379 581.443,105.232 582.625,108.78 583.806,112.327 584.988,117.057 586.169,119.421 587.351,122.968 588.534,127.698 589.715,130.062 590.897,132.428 592.079,135.975 593.26,138.339 594.442,140.704 595.625,145.434 596.806,146.616 597.988,151.345 599.169,154.892 600.351,157.258 601.533,161.987 602.715,165.534 603.897,169.081 605.079,176.175 606.26,182.088 607.442,187.999 607.442,234.112 606.26,240.024 605.079,245.936 603.897,253.03 602.715,256.577 601.533,260.124 600.351,266.037 599.169,268.401 597.988,271.948 596.806,275.495 595.625,277.86 594.442,281.407 593.26,283.772 592.079,286.137 590.897,289.684 589.715,290.867 588.534,293.231 587.351,296.778 586.169,297.961 584.988,299.142 583.806,302.691 582.625,303.872 581.443,305.055 580.261,307.419 579.079,309.785 577.897,310.967 576.715,313.332 575.534,314.514 574.352,315.696 573.171,318.061 571.989,319.244 570.806,321.608 569.625,322.791 568.443,323.973 567.261,326.338 564.897,327.521 563.715,329.885 562.534,331.068 561.352,332.249 560.171,333.432 558.989,334.615 557.807,335.796 556.625,336.979 555.443,338.162 554.261,339.344 553.08,340.526 551.898,341.709 550.716,342.891 549.535,344.073 548.352,345.256 547.17,346.438 544.807,347.621 544.807,349.985 542.443,349.985 541.261,351.168 540.08,352.35 537.716,353.532 536.535,354.715 534.17,355.898 532.989,357.079 530.626,358.262 530.626,360.626 528.262,360.626 525.898,361.809 524.716,362.992 522.353,364.175 519.989,365.356 518.807,366.539 515.262,367.722 514.081,368.903 511.716,370.086 509.353,371.269 506.99,372.451 504.627,373.633 501.081,374.816 499.899,375.998 495.172,377.18 492.808,378.363 490.445,379.545 485.717,380.727 482.173,381.91 479.808,383.092 473.899,384.275 470.354,385.457 465.627,386.639 457.354,387.822 449.082,389.004 439.628,390.186 419.537,390.186 410.083,389.004 402.992,387.822 393.538,386.639 389.992,385.457 385.265,384.275 380.538,383.092 376.993,381.91 373.447,380.727 368.719,379.545 366.356,378.363 363.993,377.18 360.447,375.998 358.084,374.816 354.539,373.633 352.175,372.451 349.811,371.269 347.447,370.086 345.084,368.903 343.902,367.722 340.357,366.539 339.175,365.356 336.811,364.175 335.63,362.992 333.266,361.809 332.085,360.626 329.72,359.445 328.539,358.262 326.176,357.079 324.993,355.898 322.63,354.715 321.448,353.532 319.085,353.532 319.085,351.168 316.72,349.985 315.539,348.803 314.357,347.621 313.176,346.438 311.994,345.256 309.631,344.073 308.448,342.891 307.266,341.709 306.085,340.526 304.903,339.344 303.721,338.162 302.539,336.979 301.357,335.796 300.176,334.615 298.994,333.432 297.812,332.249 296.631,331.068 295.449,328.702 294.266,327.521 293.085,326.338 291.903,325.155 290.721,323.973 289.54,321.608 288.358,320.426 287.177,319.244 285.994,316.879 284.812,315.696 283.631,314.514 282.449,312.149 281.267,310.967 280.086,309.785 278.903,307.419 277.721,305.055 276.54,303.872 275.358,301.508 274.177,300.325 272.995,297.961 271.812,294.414 270.631,293.231 269.449,290.867 268.267,288.501 267.086,286.137 265.904,282.59 264.723,280.225 263.54,277.86 262.358,274.313 261.177,270.766 259.995,268.401 258.813,263.671 257.632,260.124 256.45,256.577 255.267,250.666 254.086,245.936 252.904,241.206 251.723,229.383 250.541,212.829 250.541,209.282 251.723,193.912 252.904,182.088 254.086,176.175 255.267,172.628 256.45,166.716 257.632,163.169 258.813,159.622 259.995,154.892 261.177,152.528 262.358,148.981 263.54,145.434 264.723,143.069 265.904,140.704 267.086,137.157 268.267,134.792 269.449,132.428 270.631,127.698 271.812,125.333 272.995,121.785 274.177,118.238 275.358,114.691 276.54,108.78 277.721,106.415 278.903,102.868 280.086,95.7736 281.267,91.0439 282.449,85.1315 283.631,74.4905 284.812,66.2138 285.994,50.843 285.994,36.6539 284.812,20.1005 283.631,11.8237 282.449,1.18269 281.267,0 248.177,0 "/>
   <polygon id="_60676624" class="fil0" points="183.179,313.332 180.814,314.514 178.451,315.696 176.088,316.879 173.723,318.061 172.542,319.244 168.997,320.426 166.634,321.608 165.451,322.791 161.906,323.973 160.725,325.155 158.36,326.338 154.815,327.521 153.634,328.702 151.269,329.885 148.906,331.068 146.543,332.249 144.18,333.432 141.815,334.615 140.634,335.796 137.089,336.979 135.906,338.162 133.543,339.344 131.18,340.526 128.815,341.709 127.634,342.891 124.089,344.073 122.907,345.256 120.543,346.438 118.18,347.621 115.816,348.803 114.635,349.985 111.089,351.168 109.907,352.35 108.726,353.532 105.18,354.715 103.998,355.898 100.453,357.079 99.2704,358.262 96.9072,359.445 94.5439,360.626 93.3623,361.809 90.998,362.992 88.6347,364.175 86.2715,365.356 85.0898,366.539 82.7255,367.722 80.3623,368.903 79.1806,370.086 75.6347,371.269 74.4531,372.451 73.2715,373.633 69.7266,374.816 68.5439,375.998 66.1806,377.18 63.8174,378.363 62.6358,379.545 60.2714,380.727 59.0898,381.91 56.7266,383.092 54.3622,384.275 51.999,385.457 50.8174,386.639 48.4541,387.822 46.0898,389.004 44.9082,390.186 42.5449,391.369 41.3633,392.552 39,393.733 36.6357,394.916 35.4541,396.099 33.0908,397.28 30.7265,398.463 28.3633,399.646 27.1817,400.828 24.8184,402.01 23.6357,403.193 21.2725,404.375 18.9092,405.557 17.7276,406.74 15.3633,407.922 14.1816,409.105 11.8184,410.287 9.45407,411.469 8.27245,412.652 7.09082,413.834 4.72757,415.016 2.36432,416.199 1.18163,417.382 0,418.564 0,420.929 1.18163,423.293 2.36432,425.658 3.54594,426.84 4.72757,429.206 5.90919,430.387 7.09082,431.57 9.45407,431.57 10.6368,430.387 13,429.206 14.1816,428.023 16.546,426.84 18.9092,425.658 20.0908,424.476 21.2725,423.293 24.8184,422.111 26,420.929 28.3633,419.746 29.5449,418.564 31.9082,417.382 34.2725,416.199 35.4541,415.016 36.6357,413.834 40.1817,412.652 41.3633,411.469 42.5449,410.287 46.0898,409.105 47.2725,407.922 48.4541,406.74 51.999,405.557 53.1806,404.375 54.3622,403.193 56.7266,402.01 59.0898,400.828 60.2714,399.646 63.8174,398.463 64.999,397.28 67.3623,396.099 69.7266,394.916 70.9082,393.733 73.2715,392.552 74.4531,391.369 76.8163,390.186 79.1806,389.004 80.3623,387.822 82.7255,386.639 85.0898,385.457 87.4531,384.275 88.6347,383.092 90.998,381.91 93.3623,380.727 94.5439,379.545 96.9072,378.363 99.2704,377.18 101.635,375.998 103.998,374.816 105.18,373.633 108.726,372.451 109.907,371.269 111.089,370.086 114.635,368.903 116.998,367.722 118.18,366.539 120.543,365.356 122.907,364.175 124.089,362.992 127.634,361.809 128.815,360.626 131.18,359.445 133.543,358.262 134.725,357.079 137.089,355.898 140.634,354.715 141.815,353.532 144.18,352.35 146.543,351.168 147.725,349.985 151.269,348.803 153.634,347.621 154.815,346.438 157.179,345.256 159.543,344.073 160.725,342.891 164.269,341.709 166.634,340.526 167.815,339.344 171.36,338.162 172.542,336.979 174.906,335.796 178.451,334.615 179.633,333.432 181.997,332.249 184.36,331.068 186.724,329.885 190.269,328.702 191.451,327.521 193.814,326.338 193.814,323.973 192.633,321.608 191.451,318.061 190.269,316.879 189.088,314.514 187.905,312.149 185.542,312.149 "/>
   <polygon id="_59795880" class="fil0" points="210.359,640.851 211.542,645.581 212.724,650.311 213.905,658.587 215.087,663.317 216.268,668.047 217.45,676.323 218.632,681.052 219.814,684.6 220.996,694.058 222.178,698.788 223.359,702.335 224.541,711.795 225.722,715.342 226.904,720.071 228.087,728.348 229.268,733.078 230.45,741.353 231.632,747.266 232.813,751.996 233.996,753.178 255.267,753.178 256.45,751.996 257.632,749.63 258.813,747.266 259.995,742.536 261.177,738.989 262.358,736.625 263.54,731.895 264.723,729.53 265.904,727.165 267.086,722.436 268.267,720.071 269.449,716.524 270.631,711.795 271.812,709.429 272.995,707.065 274.177,702.335 275.358,699.971 276.54,695.241 277.721,691.694 278.903,689.329 280.086,684.6 281.267,682.235 282.449,679.87 283.631,675.141 284.812,672.775 285.994,675.141 287.177,678.688 288.358,683.417 289.54,685.782 290.721,688.147 291.903,692.876 293.085,695.241 294.266,697.605 295.449,702.335 296.631,704.701 297.812,708.248 298.994,711.795 300.176,714.159 301.357,718.889 302.539,721.253 303.721,723.618 304.903,728.348 306.085,730.712 307.266,733.078 308.448,737.806 309.631,740.172 310.812,742.536 311.994,747.266 313.176,749.63 314.357,751.996 315.539,753.178 336.811,753.178 337.993,749.63 339.175,744.901 340.357,740.172 341.539,731.895 342.72,727.165 343.902,721.253 345.084,714.159 346.265,709.429 347.447,701.153 348.63,696.424 349.811,691.694 350.993,683.417 352.175,678.688 353.356,673.958 354.539,665.681 355.72,660.952 356.902,656.223 358.084,647.946 359.265,643.217 360.447,638.487 360.447,633.757 340.357,633.757 339.175,638.487 337.993,646.764 336.811,651.493 335.63,656.223 334.448,665.681 333.266,670.411 332.085,675.141 330.902,683.417 329.72,688.147 328.539,692.876 327.357,702.335 326.176,707.065 324.993,711.795 323.811,718.889 322.63,714.159 321.448,711.795 320.266,707.065 319.085,704.701 317.903,701.153 316.72,696.424 315.539,694.058 314.357,691.694 313.176,686.964 311.994,684.6 310.812,681.052 309.631,676.323 308.448,673.958 307.266,670.411 306.085,665.681 304.903,663.317 303.721,660.952 302.539,656.223 301.357,653.858 300.176,650.311 298.994,645.581 297.812,643.217 296.631,639.67 295.449,636.121 294.266,633.757 280.086,633.757 278.903,634.94 277.721,637.304 276.54,642.034 275.358,644.398 274.177,649.128 272.995,652.675 271.812,655.04 270.631,659.77 269.449,662.134 268.267,664.499 267.086,670.411 265.904,672.775 264.723,675.141 263.54,679.87 262.358,682.235 261.177,685.782 259.995,690.511 258.813,692.876 257.632,695.241 256.45,699.971 255.267,702.335 254.086,705.882 252.904,710.612 251.723,712.976 250.541,717.706 249.358,720.071 249.358,714.159 248.177,709.429 246.995,704.701 245.813,695.241 244.632,690.511 243.45,685.782 242.268,677.505 241.086,672.775 239.904,668.047 238.722,658.587 237.541,653.858 236.359,649.128 235.178,640.851 233.996,636.121 232.813,633.757 210.359,633.757 "/>
   <path id="_129282680" class="fil0" d="M581.443 704.701l1.18163 -2.36539 1.18163 -5.91133 1.18163 -2.36539 1.18163 -3.54701 1.18163 -4.72971 1.18269 -3.54701 1.18163 -2.36432 1.18163 -5.9124 1.18163 -2.36432 1.18163 -3.54701 1.18163 -4.72971 0 -3.54701 2.36432 0 0 3.54701 1.18163 4.72971 1.18163 3.54701 1.18163 2.36432 1.18163 5.9124 1.18269 3.54701 1.18163 2.36432 1.18163 5.9124 1.18163 2.36432 1.18163 3.54701 1.18163 4.72971 1.18056 3.66667 -28.3611 -1.30128zm-103.998 48.4776l88.6347 0 1.18163 -3.54808 1.18163 -3.54701 1.18163 -2.36432 1.18163 -4.72971 1.18269 -3.54701 1.18163 -3.54701 1.18163 -4.72971 1.18163 -2.36432 0 -4.72971 40.1806 0 0 5.91133 1.18163 2.36539 1.18163 3.54701 1.18269 5.91133 1.18163 2.36539 1.18163 4.72971 1.18163 3.54701 1.18163 3.54701 1.18269 1.18269 24.8173 0 0 -5.9124 -1.18163 -2.36432 -1.18163 -2.36539 -1.18269 -4.72971 -1.18163 -3.54701 -1.18163 -2.36432 -1.18163 -4.72971 -1.18163 -2.36432 -1.18269 -4.72971 -1.18163 -2.36539 -1.18163 -3.54701 -1.18163 -4.72971 -1.18163 -2.36432 -1.18163 -2.36432 -1.18163 -4.72971 -1.18269 -2.36539 -1.18163 -3.54701 -1.18163 -4.72971 -1.18163 -2.36432 -1.18163 -2.36432 -1.18163 -4.72971 -1.18163 -2.36539 -1.18269 -3.54701 -1.18163 -4.72971 -1.18163 -2.36432 -1.18163 -3.54701 -1.18163 -3.54701 -1.18269 -2.36539 -1.18163 -4.72971 -1.18163 -3.54701 -1.18163 -2.36432 -1.18163 -4.72971 -1.18163 -2.36432 -1.18163 -2.36539 -1.18269 -3.54701 -24.8173 0 -1.18163 1.18269 -1.18163 2.36432 -1.18163 2.36539 -1.18163 4.72864 -1.18269 3.54808 -1.18163 2.36432 -1.18163 4.72971 -1.18163 2.36432 -1.18163 3.54701 -1.18163 3.54701 -1.18163 3.54808 -1.18269 4.72864 -1.18163 2.36539 -1.18163 2.36432 -1.18163 5.9124 -1.18163 2.36432 -1.18269 2.36539 -1.18163 4.72864 -1.18163 2.36539 -1.18163 3.54701 -1.18163 4.72971 -1.18163 2.36432 -1.18163 2.36539 -1.18269 4.72864 -1.18163 2.36539 -1.18163 3.54701 -1.18163 4.72971 -1.18163 2.36432 -1.18163 4.72971 -1.18163 3.54701 -1.18269 2.36539 -1.18163 4.72864 -1.18163 2.36539 0 -5.9124 -43.7265 0 0 -102.867 -1.18163 -1.18269 -23.6357 0 0 119.421z"/>
   <path id="_60682384" class="fil0" d="M397.083 704.701l1.18163 -5.9124 1.18163 -2.36432 1.18269 -3.54808 1.18163 -4.72864 1.18163 -3.54701 1.18163 -2.36539 1.18163 -5.91133 1.18163 -2.36539 1.18269 -3.54701 1.18163 -4.72971 1.18163 -3.54701 0 -2.36432 2.36325 0 0 4.72864 1.18163 3.54808 1.18163 3.54701 1.18269 4.72971 1.18163 3.54701 1.18163 3.54701 1.18163 4.72971 1.18163 3.54701 1.18163 3.54701 1.18269 4.72971 1.18163 3.54701 1.17949 2.48398 -28.3611 -1.30128zm1.18163 -67.3964l-1.18163 2.36539 -1.18163 2.36432 -1.18163 4.72971 -1.18163 3.54701 -1.18269 2.36432 -1.18163 4.72971 -1.18163 2.36539 -1.18163 4.72864 -1.18163 3.54808 -1.18163 2.36432 -1.18163 4.72971 -1.18269 2.36432 -1.18163 2.36539 -1.18163 4.72971 -1.18163 3.54701 -1.18163 2.36432 -1.18163 4.72971 -1.18163 2.36432 -1.18269 3.54701 -1.18163 4.72971 -1.18163 2.36539 -1.18163 2.36432 -1.18163 4.72971 -1.18269 2.36432 -1.18163 3.54701 -1.18163 4.72971 -1.18163 2.36539 -1.18163 4.72971 -1.18163 2.36432 -1.18163 3.54701 -1.18269 4.72971 -1.18163 2.36432 -1.18163 2.36539 0 4.72971 21.2725 0 1.18163 -1.18269 1.18163 -2.36539 1.18163 -3.54701 1.18269 -4.72971 1.18163 -3.54701 1.18163 -3.54701 1.18163 -4.72971 1.18163 -2.36432 1.18163 -5.9124 39 -1.18163 0 3.54701 1.18163 2.36432 1.18163 3.54701 1.18163 4.72971 1.18163 3.54701 1.18163 4.72971 1.18269 3.54701 1.18163 3.54701 1.18163 3.54808 25.999 0 0 -3.54808 -1.18163 -4.72864 -1.18163 -2.36539 -1.18163 -2.36432 -1.18163 -4.72971 -1.18163 -3.54701 -1.18269 -3.54701 -1.18163 -3.54701 -1.18163 -2.36539 -1.18163 -4.72971 -1.18163 -3.54701 -1.18163 -2.36432 -1.18269 -4.72971 -1.18163 -2.36432 -1.18163 -2.36539 -1.18163 -4.72971 -1.18163 -3.54701 -1.18163 -2.36432 -1.18269 -4.72971 -1.18163 -2.36432 -1.18163 -2.36539 -1.18163 -4.72971 -1.18163 -3.54701 -1.18163 -2.36432 -1.18163 -4.72971 -1.18269 -2.36539 -1.18163 -4.72864 -1.18163 -2.36539 -1.18163 -3.54701 -1.18163 -4.72971 -1.18163 -2.36432 -1.18269 -2.36539 -1.18163 -4.72864 -1.18163 -2.36539 -1.18163 -3.54701 -26 0 -1.18163 3.54701z"/>
  </g>
 </g>
</svg>
